<?xml version="1.0" encoding="UTF-8"?>
<svg width="158px" height="41px" viewBox="0 0 158 41" version="1.1" xmlns="http://www.w3.org/2000/svg" xmlns:xlink="http://www.w3.org/1999/xlink">
    <!-- Generator: Sketch 58 (84663) - https://sketch.com -->
    <title>Logo/navy</title>
    <desc>Created with Sketch.</desc>
    <g id="Logo/navy" stroke="none" stroke-width="1" fill="none" fill-rule="evenodd">
        <g id="R" transform="translate(145.000000, 11.000000)" fill="#152D72" fill-rule="nonzero">
            <path d="M4.8641791,6.0119403 L4.31343284,6.0119403 L4.31343284,7.6641791 L3.70149254,7.6641791 L3.70149254,3.19701493 L5.41492537,3.19701493 C6.39402985,3.19701493 6.76119403,3.93134328 6.76119403,4.60447761 C6.76119403,5.21641791 6.45522388,5.88955224 5.59850746,5.95074627 L6.76119403,7.60298507 L5.96567164,7.60298507 L4.8641791,6.0119403 Z M4.31343284,5.4 L5.17014925,5.4 C5.78208955,5.4 6.02686567,5.09402985 6.02686567,4.60447761 C6.02686567,4.11492537 5.72089552,3.80895522 5.29253731,3.80895522 L4.31343284,3.80895522 L4.31343284,5.4 Z" id="Shape"></path>
            <path d="M5.10895522,9.98955224 C2.6,9.98955224 0.580597015,7.97014925 0.580597015,5.46119403 C0.580597015,2.95223881 2.6,0.932835821 5.10895522,0.932835821 C7.61791045,0.932835821 9.63731343,2.95223881 9.63731343,5.46119403 C9.5761194,7.97014925 7.55671642,9.98955224 5.10895522,9.98955224 Z M5.10895522,1.36119403 C2.84477612,1.36119403 1.00895522,3.19701493 1.00895522,5.46119403 C1.00895522,7.72537313 2.84477612,9.56119403 5.10895522,9.56119403 C7.37313433,9.56119403 9.20895522,7.72537313 9.20895522,5.46119403 C9.20895522,3.19701493 7.37313433,1.36119403 5.10895522,1.36119403 Z" id="Shape"></path>
        </g>
        <g id="Bionic" fill-rule="nonzero">
            <path d="M22.7029851,18.8477612 C26.8641791,17.2567164 28.2104478,13.8910448 28.2104478,11.2597015 C28.2104478,4.34477612 23.4985075,0 16.2164179,0 L8.62835821,0 L8.62835821,7.5880597 L15.2985075,7.5880597 C17.8074627,7.5880597 19.0925373,9.30149254 19.0925373,11.8104478 C19.0925373,14.1970149 17.5626866,15.9716418 15.3597015,15.9716418 L8.62835821,15.9716418 L8.62835821,7.5880597 L0,7.5880597 L0,40.5104478 L17.3791045,40.5104478 C25.4567164,40.5104478 30.2910448,34.819403 30.2910448,28.0880597 C30.3522388,24.7835821 28.0268657,20.1940299 22.7029851,18.8477612 Z M16.9507463,32.9223881 L8.62835821,32.9223881 L8.62835821,23.1313433 L16.7671642,23.1313433 C19.8268657,23.1313433 21.2955224,25.6402985 21.2955224,27.9656716 C21.2955224,30.3522388 19.8268657,32.9223881 16.9507463,32.9223881 Z" id="Shape" fill="#152D72"></path>
            <rect id="Rectangle" fill="#152D72" x="33.4731343" y="12.8507463" width="8.01641791" height="27.6597015"></rect>
            <rect id="Rectangle" fill="#152D72" x="106.232836" y="12.8507463" width="8.01641791" height="27.6597015"></rect>
            <rect id="Rectangle" fill="#FF6841" x="33.4731343" y="0" width="7.77164179" height="7.77164179"></rect>
            <path d="M137.564179,29.6179104 C136.401493,31.5149254 134.320896,32.8 131.934328,32.8 C128.323881,32.8 125.386567,29.8626866 125.386567,26.2522388 C125.386567,22.641791 128.323881,19.7044776 131.934328,19.7044776 C134.259701,19.7044776 136.340299,20.9283582 137.502985,22.7641791 L143.622388,18.1134328 C141.052239,14.441791 136.768657,11.9940299 131.934328,11.9940299 C124.101493,11.9940299 117.676119,18.358209 117.676119,26.2522388 C117.676119,34.1462687 124.040299,40.5104478 131.934328,40.5104478 C136.829851,40.5104478 141.113433,38.0626866 143.683582,34.3298507 L137.564179,29.6179104 Z" id="Path" fill="#152D72"></path>
            <path d="M58.6850746,11.9940299 C50.8522388,11.9940299 44.4268657,18.358209 44.4268657,26.2522388 C44.4268657,34.1462687 50.7910448,40.5104478 58.6850746,40.5104478 C66.5791045,40.5104478 72.9432836,34.1462687 72.9432836,26.2522388 C72.9432836,18.358209 66.5791045,11.9940299 58.6850746,11.9940299 Z M58.6850746,32.738806 C55.0746269,32.738806 52.1985075,29.8626866 52.1985075,26.2522388 C52.1985075,22.641791 55.0746269,19.7656716 58.6850746,19.7656716 C62.2955224,19.7656716 65.1716418,22.641791 65.1716418,26.2522388 C65.1716418,29.8626866 62.2955224,32.738806 58.6850746,32.738806 Z" id="Shape" fill="#152D72"></path>
            <polygon id="Path" fill="#152D72" points="76.1253731 12.8507463 76.1253731 40.5716418 84.141791 40.5716418 84.141791 20.8671642 93.6268657 20.8671642 93.6268657 40.5716418 101.643284 40.5716418 101.643284 12.8507463"></polygon>
            <path d="M110.08806,9.60746269 L110.08806,9.60746269 C112.597015,9.60746269 114.677612,7.5880597 114.677612,5.01791045 L114.677612,5.01791045 C114.677612,2.50895522 112.658209,0.428358209 110.08806,0.428358209 L110.08806,0.428358209 C107.579104,0.428358209 105.498507,2.44776119 105.498507,5.01791045 L105.498507,5.01791045 C105.498507,7.52686567 107.51791,9.60746269 110.08806,9.60746269 Z" id="Path" fill="#FF6841"></path>
        </g>
    </g>
</svg>
